GiveMeGestalt
…
## See spec(...) for full column specifications.

data

## # A tibble: 3,720 x 24
##    submission_id QUD      RT   age comments education endTime experiment_id
##            <dbl> <lgl> <dbl> <dbl> <chr>    <chr>       <dbl>         <dbl>
##  1           705 NA     6275    21 <NA>     Graduate 1.56e12            73
##  2           705 NA    21893    21 <NA>     Graduate 1.56e12            73
##  3           705 NA     4306    21 <NA>     Graduate 1.56e12            73
##  4           705 NA     4049    21 <NA>     Graduate 1.56e12            73
##  5           705 NA     4818    21 <NA>     Graduate 1.56e12            73
##  6           705 NA     2193    21 <NA>     Graduate 1.56e12            73
##  7           705 NA     3387    21 <NA>     Graduate 1.56e12            73
##  8           705 NA     3228    21 <NA>     Graduate 1.56e12            73
##  9           705 NA     3130    21 <NA>     Graduate 1.56e12            73
## 10           705 NA     3662    21 <NA>     Graduate 1.56e12            73
## #  with 3,710 more rows, and 16 more variables: gender <chr>,
## #   languages <chr>, min_chars <dbl>, optionLeft <chr>, optionRight <chr>,
## #   picture <chr>, position <chr>, question <chr>, response <chr>,
## #   response_checked <lgl>, startDate <chr>, startTime <dbl>,
## #   timeSpent <dbl>, top <dbl>, trial_name <chr>, trial_number <dbl>

Select and mutate important columns

data <- select(data, RT, response, submission_id, trial_name, picture)

data <- mutate(data, trial_name=factor(trial_name), response=factor(response, ordered=T))

data

## # A tibble: 3,720 x 5
##       RT response submission_id trial_name picture                
##    <dbl> <ord>            <dbl> <fct>      <chr>                  
##  1  6275 29                 705 ishihara   Ishihara/29.jpg        
##  2 21893 9                  705 ishihara   Ishihara/6.jpg         
##  3  4306 8                  705 ishihara   Ishihara/8.jpg         
##  4  4049 18                 705 ishihara   Ishihara/18.jpg        
##  5  4818 7                  705 firstblock realartsyimages/106.jpg
##  6  2193 5                  705 firstblock realartsyimages/009.jpg
##  7  3387 5                  705 firstblock realartsyimages/002.jpg
##  8  3228 6                  705 firstblock realartsyimages/086.jpg
##  9  3130 4                  705 firstblock realartsyimages/078.jpg
## 10  3662 6                  705 firstblock realartsyimages/047.jpg
## #  with 3,710 more rows
…
Filter out too fast RTs

All rows with a quicker RT than the printed value below were removed.

print(mean(jointdataset$RT.x)-1.25*sd(jointdataset$RT.x))

## [1] 390.4658

jointdataset <- filter(jointdataset, RT.x >= mean(RT.x)-1.25*sd(RT.x), RT.y >= mean(RT.x)-1.25*sd(RT.x)) %>% mutate(liking = factor(response.x, ordered = T), detectability = factor(response.y, ordered = T)) %>% select(ID = submission_id, picture, RTliking= RT.x, RTdetectability = RT.y, liking, detectability) %>% as_tibble()

jointdataset

## # A tibble: 1,076 x 6
##    ID    picture RTliking RTdetectability liking detectability
##    <fct> <fct>      <dbl>           <dbl> <ord>  <ord>        
##  1 703   001         1047            2042 2      2            
##  2 703   004          524             429 5      2            
##  3 703   006          878             583 3      2            
##  4 703   008         1611            1821 1      1            
##  5 703   011          823             448 3      2            
##  6 703   013          993            1337 5      2            
##  7 703   036         1596             418 5      2            
##  8 703   037         1117             568 3      2            
##  9 703   041         1375             497 3      2            
## 10 703   042         1632             648 3      2            
## #  with 1,066 more rows
…
style(0 = analytical, 1 = synthetic), color(0 = colored, 1 = monochrome)

styledata <- read_csv("style_cub3.csv")

## Parsed with column specification:
## cols(
##   picture = col_character(),
##   style = col_double(),
##   color = col_double()
## )

#styledata$picture <- seq.int(nrow(styledata))
styledata

## # A tibble: 120 x 3
##    picture style color
##    <chr>   <dbl> <dbl>
##  1 001         0     0
##  2 117         0     0
##  3 002         0     0
##  4 003         0     0
##  5 004         0     0
##  6 005         0     0
##  7 006         0     0
##  8 119         0     0
##  9 007         0     0
## 10 008         0     0
## #  with 110 more rows
…
